{
    "photos": {
        "page": 1,
        "pages": 48306,
        "perpage": 10,
        "total": 483054,
        "photo": [
            {
                "id": "52917773513",
                "owner": "47156767@N07",
                "secret": "b058d16520",
                "server": "65535",
                "farm": 66,
                "title": "People you meet while travelling",
                "ispublic": 1,
                "isfriend": 0,
                "isfamily": 0,
                "description": {
                    "_content": ""
                },
                "ownername": "-Walt-",
                "iconserver": "4451",
                "iconfarm": 5,
                "tags": "",
                "url_m": "https:\/\/live.staticflickr.com\/65535\/52917773513_b058d16520.jpg",
                "height_m": 375,
                "width_m": 500
            },
            {
                "id": "52917773433",
                "owner": "24805120@N04",
                "secret": "f499673b6f",
                "server": "65535",
                "farm": 66,
                "title": "IMG_8880",
                "ispublic": 1,
                "isfriend": 0,
                "isfamily": 0,
                "description": {
                    "_content": ""
                },
                "ownername": "pdng07a",
                "iconserver": "0",
                "iconfarm": 0,
                "tags": "",
                "url_m": "https:\/\/live.staticflickr.com\/65535\/52917773433_f499673b6f.jpg",
                "height_m": 333,
                "width_m": 500
            },
            {
                "id": "52917467404",
                "owner": "197496892@N05",
                "secret": "49c1d74323",
                "server": "65535",
                "farm": 66,
                "title": "CG0nkNGhbD",
                "ispublic": 1,
                "isfriend": 0,
                "isfamily": 0,
                "description": {
                    "_content": ""
                },
                "ownername": "arvinddawar1984",
                "iconserver": "0",
                "iconfarm": 0,
                "tags": "",
                "url_m": "https:\/\/live.staticflickr.com\/65535\/52917467404_49c1d74323.jpg",
                "height_m": 250,
                "width_m": 500
            },
            {
                "id": "52916732517",
                "owner": "63018044@N02",
                "secret": "4a2560ef28",
                "server": "65535",
                "farm": 66,
                "title": "Graauw",
                "ispublic": 1,
                "isfriend": 0,
                "isfamily": 0,
                "description": {
                    "_content": "Door Edy van Vliembergen, Graauw\nVandaag 22 mei 2023 zijn er weer vier poppen van de Koninginnepage uitgekomen in Zandberg."
                },
                "ownername": "Omroep Zeeland",
                "iconserver": "5551",
                "iconfarm": 6,
                "tags": "bloemen vlinder",
                "url_m": "https:\/\/live.staticflickr.com\/65535\/52916732517_4a2560ef28.jpg",
                "height_m": 282,
                "width_m": 500
            },
            {
                "id": "52916732482",
                "owner": "38082613@N00",
                "secret": "6898796b62",
                "server": "65535",
                "farm": 66,
                "title": "TMFC-1013400",
                "ispublic": 1,
                "isfriend": 0,
                "isfamily": 0,
                "description": {
                    "_content": ""
                },
                "ownername": "bridgebuilder",
                "iconserver": "3105",
                "iconfarm": 4,
                "tags": "tmfc aircraft club flying models planes tyldesley",
                "url_m": "https:\/\/live.staticflickr.com\/65535\/52916732482_6898796b62.jpg",
                "height_m": 270,
                "width_m": 500
            },
            {
                "id": "52917773153",
                "owner": "88190593@N04",
                "secret": "d46983d256",
                "server": "65535",
                "farm": 66,
                "title": "20230513_220900",
                "ispublic": 1,
                "isfriend": 0,
                "isfamily": 0,
                "description": {
                    "_content": ""
                },
                "ownername": "How Upsetting",
                "iconserver": "5587",
                "iconfarm": 6,
                "tags": "",
                "url_m": "https:\/\/live.staticflickr.com\/65535\/52917773153_d46983d256.jpg",
                "height_m": 234,
                "width_m": 500
            },
            {
                "id": "52916732412",
                "owner": "196722703@N03",
                "secret": "3a79b62221",
                "server": "65535",
                "farm": 66,
                "title": "",
                "ispublic": 1,
                "isfriend": 0,
                "isfamily": 0,
                "description": {
                    "_content": ""
                },
                "ownername": "samanthadougherty",
                "iconserver": "0",
                "iconfarm": 0,
                "tags": "",
                "url_m": "https:\/\/live.staticflickr.com\/65535\/52916732412_3a79b62221.jpg",
                "height_m": 375,
                "width_m": 500
            },
            {
                "id": "52917773093",
                "owner": "11257416@N06",
                "secret": "03b6d697b7",
                "server": "65535",
                "farm": 66,
                "title": "Huckleberry",
                "ispublic": 1,
                "isfriend": 0,
                "isfamily": 0,
                "description": {
                    "_content": ""
                },
                "ownername": "michael.siddons",
                "iconserver": "1235",
                "iconfarm": 2,
                "tags": "",
                "url_m": "https:\/\/live.staticflickr.com\/65535\/52917773093_03b6d697b7.jpg",
                "height_m": 333,
                "width_m": 500
            },
            {
                "id": "52917467084",
                "owner": "195877156@N07",
                "secret": "59b4a52285",
                "server": "65535",
                "farm": 66,
                "title": "HOMMAGE A MISS TIC",
                "ispublic": 1,
                "isfriend": 0,
                "isfamily": 0,
                "description": {
                    "_content": "missticinparis.com\/"
                },
                "ownername": "Cisno-BAL",
                "iconserver": "65535",
                "iconfarm": 66,
                "tags": "",
                "url_m": "https:\/\/live.staticflickr.com\/65535\/52917467084_59b4a52285.jpg",
                "height_m": 341,
                "width_m": 500
            }
        ]
    },
    "stat": "ok"
}
